<svg xmlns="http://www.w3.org/2000/svg" width="12" height="12" viewBox="0 0 12 12">
  <metadata><?xpacket begin="﻿" id="W5M0MpCehiHzreSzNTczkc9d"?>
<x:xmpmeta xmlns:x="adobe:ns:meta/" x:xmptk="Adobe XMP Core 5.6-c138 79.159824, 2016/09/14-01:09:01        ">
   <rdf:RDF xmlns:rdf="http://www.w3.org/1999/02/22-rdf-syntax-ns#">
      <rdf:Description rdf:about=""/>
   </rdf:RDF>
</x:xmpmeta>
                                                                                                    
                                                                                                    
                                                                                                    
                                                                                                    
                                                                                                    
                                                                                                    
                                                                                                    
                                                                                                    
                                                                                                    
                                                                                                    
                                                                                                    
                                                                                                    
                                                                                                    
                                                                                                    
                                                                                                    
                                                                                                    
                                                                                                    
                                                                                                    
                                                                                                    
                                                                                                    
                           
<?xpacket end="w"?></metadata>
<defs>
    <style>
      .ico-search--active {
        fill: #c69d5e;
        fill-rule: evenodd;
      }
    </style>
  </defs>
  <path id="icon_search_копия_4" data-name="icon_search копия 4" class="ico-search--active" d="M295.811,486.929l-2.957-2.97a4.735,4.735,0,0,0,1.177-3.116,5.02,5.02,0,1,0-5.017,4.846,5.085,5.085,0,0,0,2.874-.877l2.98,2.993a0.67,0.67,0,0,0,.925.017A0.617,0.617,0,0,0,295.811,486.929Zm-6.8-9.667a3.583,3.583,0,1,1-3.708,3.581A3.65,3.65,0,0,1,289.014,477.262Z" transform="translate(-284 -476)"/>
</svg>
