<svg xmlns="http://www.w3.org/2000/svg" xmlns:xlink="http://www.w3.org/1999/xlink" width="8.906" height="18" viewBox="0 0 8.906 18">
  <metadata><?xpacket begin="﻿" id="W5M0MpCehiHzreSzNTczkc9d"?>
<x:xmpmeta xmlns:x="adobe:ns:meta/" x:xmptk="Adobe XMP Core 5.6-c138 79.159824, 2016/09/14-01:09:01        ">
   <rdf:RDF xmlns:rdf="http://www.w3.org/1999/02/22-rdf-syntax-ns#">
      <rdf:Description rdf:about=""/>
   </rdf:RDF>
</x:xmpmeta>
                                                                                                    
                                                                                                    
                                                                                                    
                                                                                                    
                                                                                                    
                                                                                                    
                                                                                                    
                                                                                                    
                                                                                                    
                                                                                                    
                                                                                                    
                                                                                                    
                                                                                                    
                                                                                                    
                                                                                                    
                                                                                                    
                                                                                                    
                                                                                                    
                                                                                                    
                                                                                                    
                           
<?xpacket end="w"?></metadata>
<defs>
    <style>
      .ico-subs-fb--hover {
        fill-rule: evenodd;
        fill: #c69d5e;
      }
    </style>
    <filter id="filter" x="976" y="701" width="8.906" height="18" filterUnits="userSpaceOnUse">
      <feFlood result="flood" flood-color="#c8a468"/>
      <feComposite result="composite" operator="in" in2="SourceGraphic"/>
      <feBlend result="blend" in2="SourceGraphic"/>
    </filter>
  </defs>
  <path id="Forma_1_копия_9" data-name="Forma 1 копия 9" class="ico-subs-fb--hover" d="M977.922,704.494v2.478H976V710h1.927v9h3.96v-9h2.657s0.249-1.452.37-3.041H981.9v-2.072a0.914,0.914,0,0,1,.859-0.726h2.157v-3.154H981.98C977.825,701.008,977.922,704.042,977.922,704.494Z" transform="translate(-976 -701)"/>
</svg>
