<svg xmlns="http://www.w3.org/2000/svg" width="9" height="9" viewBox="0 0 9 9">
  <metadata><?xpacket begin="﻿" id="W5M0MpCehiHzreSzNTczkc9d"?>
<x:xmpmeta xmlns:x="adobe:ns:meta/" x:xmptk="Adobe XMP Core 5.6-c138 79.159824, 2016/09/14-01:09:01        ">
   <rdf:RDF xmlns:rdf="http://www.w3.org/1999/02/22-rdf-syntax-ns#">
      <rdf:Description rdf:about=""/>
   </rdf:RDF>
</x:xmpmeta>
                                                                                                    
                                                                                                    
                                                                                                    
                                                                                                    
                                                                                                    
                                                                                                    
                                                                                                    
                                                                                                    
                                                                                                    
                                                                                                    
                                                                                                    
                                                                                                    
                                                                                                    
                                                                                                    
                                                                                                    
                                                                                                    
                                                                                                    
                                                                                                    
                                                                                                    
                                                                                                    
                           
<?xpacket end="w"?></metadata>
<defs>
    <style>
      .ico-insta{
        fill-rule: evenodd;
      }
    </style>
  </defs>
  <path class="ico-insta" d="M1309.16,35.006h6.68A1.159,1.159,0,0,1,1317,36.16v6.679a1.158,1.158,0,0,1-1.16,1.153h-6.68a1.158,1.158,0,0,1-1.16-1.153V36.16A1.159,1.159,0,0,1,1309.16,35.006Zm5.4,1a0.406,0.406,0,0,0-.41.406v0.968a0.406,0.406,0,0,0,.41.405h1.01a0.406,0.406,0,0,0,.41-0.405V36.41a0.406,0.406,0,0,0-.41-0.406h-1.01Zm1.42,2.8h-0.79a2.806,2.806,0,0,1,.12.772,2.8,2.8,0,0,1-5.6,0,2.474,2.474,0,0,1,.12-0.772H1309v3.8a0.358,0.358,0,0,0,.36.357h6.26a0.358,0.358,0,0,0,.36-0.357v-3.8Zm-3.47-1.075a1.75,1.75,0,1,0,1.81,1.749A1.78,1.78,0,0,0,1312.51,37.731Z" transform="translate(-1308 -35)"/>
</svg>
