<svg xmlns="http://www.w3.org/2000/svg" width="9" height="9" viewBox="0 0 9 9">
  <metadata><?xpacket begin="﻿" id="W5M0MpCehiHzreSzNTczkc9d"?>
<x:xmpmeta xmlns:x="adobe:ns:meta/" x:xmptk="Adobe XMP Core 5.6-c138 79.159824, 2016/09/14-01:09:01        ">
   <rdf:RDF xmlns:rdf="http://www.w3.org/1999/02/22-rdf-syntax-ns#">
      <rdf:Description rdf:about=""/>
   </rdf:RDF>
</x:xmpmeta>
                                                                                                    
                                                                                                    
                                                                                                    
                                                                                                    
                                                                                                    
                                                                                                    
                                                                                                    
                                                                                                    
                                                                                                    
                                                                                                    
                                                                                                    
                                                                                                    
                                                                                                    
                                                                                                    
                                                                                                    
                                                                                                    
                                                                                                    
                                                                                                    
                                                                                                    
                                                                                                    
                           
<?xpacket end="w"?></metadata>
<defs>
    <style>
      .ico-insta--white{
        fill: #fff;
        fill-rule: evenodd;
      }
    </style>
  </defs>
  <path id="Shape_1_копия_3" data-name="Shape 1 копия 3" class="ico-insta--white" d="M801.155,125.006h6.688A1.159,1.159,0,0,1,809,126.159v6.68a1.158,1.158,0,0,1-1.156,1.153h-6.688A1.158,1.158,0,0,1,800,132.839v-6.68A1.158,1.158,0,0,1,801.155,125.006Zm5.4,1a0.407,0.407,0,0,0-.4.405v0.968a0.406,0.406,0,0,0,.4.405h1.017a0.406,0.406,0,0,0,.4-0.405v-0.968a0.407,0.407,0,0,0-.4-0.405h-1.017Zm1.426,2.8h-0.792a2.626,2.626,0,0,1,.116.771,2.8,2.8,0,0,1-5.595,0,2.626,2.626,0,0,1,.116-0.771H801v3.8a0.358,0.358,0,0,0,.357.357h6.267a0.358,0.358,0,0,0,.357-0.357v-3.8Zm-3.473-1.075a1.75,1.75,0,1,0,1.807,1.749A1.78,1.78,0,0,0,804.508,127.731Z" transform="translate(-800 -125)"/>
</svg>
