<svg xmlns="http://www.w3.org/2000/svg" width="21" height="21" viewBox="0 0 21 21">
  <metadata><?xpacket begin="﻿" id="W5M0MpCehiHzreSzNTczkc9d"?>
<x:xmpmeta xmlns:x="adobe:ns:meta/" x:xmptk="Adobe XMP Core 5.6-c138 79.159824, 2016/09/14-01:09:01        ">
   <rdf:RDF xmlns:rdf="http://www.w3.org/1999/02/22-rdf-syntax-ns#">
      <rdf:Description rdf:about=""/>
   </rdf:RDF>
</x:xmpmeta>
                                                                                                    
                                                                                                    
                                                                                                    
                                                                                                    
                                                                                                    
                                                                                                    
                                                                                                    
                                                                                                    
                                                                                                    
                                                                                                    
                                                                                                    
                                                                                                    
                                                                                                    
                                                                                                    
                                                                                                    
                                                                                                    
                                                                                                    
                                                                                                    
                                                                                                    
                                                                                                    
                           
<?xpacket end="w"?></metadata>
<defs>
    <style>
      .ico-subs-google {
        fill-rule: evenodd;
      }
    </style>
  </defs>
  <path id="Shape_1_копия_5" data-name="Shape 1 копия 5" class="ico-subs-google" d="M1161.31,701.282h-1.59v-1.6a0.688,0.688,0,0,0-.69-0.685h-1.37a0.68,0.68,0,0,0-.68.685v1.6h-1.6a0.68,0.68,0,0,0-.68.685v1.369a0.679,0.679,0,0,0,.68.685h1.6v1.6a0.68,0.68,0,0,0,.68.685h1.37a0.688,0.688,0,0,0,.69-0.685v-1.6h1.59a0.688,0.688,0,0,0,.69-0.685v-1.369A0.688,0.688,0,0,0,1161.31,701.282Zm-3.91,9.754a0.688,0.688,0,0,0-.69-0.624h-6.81a0.68,0.68,0,0,0-.68.685v1.37a0.679,0.679,0,0,0,.68.684h4.62a5.479,5.479,0,0,1-10.75-1.985,5.858,5.858,0,0,1,4.72-4.815,5.466,5.466,0,0,1,4.14,1.15,0.68,0.68,0,0,0,.91-0.045l0.98-.973a0.693,0.693,0,0,0-.04-1.008,8.216,8.216,0,1,0,2.84,7.676,8.832,8.832,0,0,0,.11-1.369C1157.43,711.531,1157.42,711.283,1157.4,711.036Z" transform="translate(-1141 -699)"/>
</svg>
