<svg xmlns="http://www.w3.org/2000/svg" width="11.969" height="7" viewBox="0 0 11.969 7">
  <metadata><?xpacket begin="﻿" id="W5M0MpCehiHzreSzNTczkc9d"?>
<x:xmpmeta xmlns:x="adobe:ns:meta/" x:xmptk="Adobe XMP Core 5.6-c138 79.159824, 2016/09/14-01:09:01        ">
   <rdf:RDF xmlns:rdf="http://www.w3.org/1999/02/22-rdf-syntax-ns#">
      <rdf:Description rdf:about=""/>
   </rdf:RDF>
</x:xmpmeta>
                                                                                                    
                                                                                                    
                                                                                                    
                                                                                                    
                                                                                                    
                                                                                                    
                                                                                                    
                                                                                                    
                                                                                                    
                                                                                                    
                                                                                                    
                                                                                                    
                                                                                                    
                                                                                                    
                                                                                                    
                                                                                                    
                                                                                                    
                                                                                                    
                                                                                                    
                                                                                                    
                           
<?xpacket end="w"?></metadata>
<defs>
    <style>
      .ico-vk--white{
        fill: #fff;
        fill-rule: evenodd;
      }
    </style>
  </defs>
  <path id="ico-vk--white" data-name="ico-vk--hover" class="ico-vk--white" d="M751.311,130.464a16.892,16.892,0,0,1,1.173,1.22,3.5,3.5,0,0,1,.42.627,0.451,0.451,0,0,1-.265.7h-1.745a1.326,1.326,0,0,1-1.112-.467c-0.241-.255-0.465-0.525-0.7-0.788a1.717,1.717,0,0,0-.314-0.289,0.36,0.36,0,0,0-.582.146,1.951,1.951,0,0,0-.184.842,0.47,0.47,0,0,1-.555.556,4.341,4.341,0,0,1-2.5-.555,5.583,5.583,0,0,1-1.681-1.627,22.157,22.157,0,0,1-2.212-4.075c-0.139-.321-0.037-0.494.306-0.5,0.569-.011,1.138-0.01,1.709,0a0.5,0.5,0,0,1,.473.366,11.094,11.094,0,0,0,1.158,2.219,1.9,1.9,0,0,0,.438.5,0.263,0.263,0,0,0,.451-0.137,1.549,1.549,0,0,0,.1-0.465,7.184,7.184,0,0,0-.028-1.632,0.671,0.671,0,0,0-.56-0.621c-0.167-.033-0.142-0.1-0.061-0.2a0.62,0.62,0,0,1,.535-0.275h1.972a0.48,0.48,0,0,1,.422.53l0,2.265a0.672,0.672,0,0,0,.279.579,0.385,0.385,0,0,0,.394-0.2,7.074,7.074,0,0,0,1.11-1.765c0.134-.279.248-0.568,0.36-0.858a0.421,0.421,0,0,1,.445-0.315h1.9a0.943,0.943,0,0,1,.168.011,0.34,0.34,0,0,1,.309.521,4.975,4.975,0,0,1-.755,1.353c-0.317.453-.655,0.891-0.969,1.346a0.626,0.626,0,0,0,.093.987h0Z" transform="translate(-741 -126)"/>
</svg>
